{
  "project_info": {
    "project_number": "888632928235",
    "firebase_url": "https://emojichatapp-d7f6d.firebaseio.com",
    "project_id": "emojichatapp-d7f6d",
    "storage_bucket": "emojichatapp-d7f6d.appspot.com"
  },
  "client": [
    {
      "client_info": {
        "mobilesdk_app_id": "1:888632928235:android:a26380d0668b55bd",
        "android_client_info": {
          "package_name": "com.conceptioni.singalchatapp"
        }
      },
      "oauth_client": [
        {
          "client_id": "888632928235-1ema0mcfnv0oq9adfppdkt1rag9dgsj0.apps.googleusercontent.com",
          "client_type": 1,
          "android_info": {
            "package_name": "com.conceptioni.singalchatapp",
            "certificate_hash": "27df1b20101d555c15f592b2b9497f16267059b2"
          }
        },
        {
          "client_id": "888632928235-04lnr4rn709qqtpc2n8cepib2f8f2fuf.apps.googleusercontent.com",
          "client_type": 3
        }
      ],
      "api_key": [
        {
          "current_key": "AIzaSyBycD-v2bvLN4WetjBB4HmaMh3e_Nt1lb8"
        }
      ],
      "services": {
        "analytics_service": {
          "status": 1
        },
        "appinvite_service": {
          "status": 2,
          "other_platform_oauth_client": [
            {
              "client_id": "888632928235-04lnr4rn709qqtpc2n8cepib2f8f2fuf.apps.googleusercontent.com",
              "client_type": 3
            }
          ]
        },
        "ads_service": {
          "status": 2
        }
      }
    }
  ],
  "configuration_version": "1"
}